^C:\USERS\ACER\SOURCE\REPOS\LAB 8-9\TASK 4\TASK 4.CPP
C:\WINDOWS\GLOBALIZATION\SORTING\SORTDEFAULT.NLS
D:\VS\VC\TOOLS\MSVC\14.29.30133\BIN\HOSTX86\X86\1049\CLUI.DLL
C:\WINDOWS\SYSTEM32\TZRES.DLL
D:\WINDOWS KITS\10\INCLUDE\10.0.19041.0\UCRT\STDIO.H
D:\WINDOWS KITS\10\INCLUDE\10.0.19041.0\UCRT\CORECRT.H
D:\VS\VC\TOOLS\MSVC\14.29.30133\INCLUDE\VCRUNTIME.H
D:\VS\VC\TOOLS\MSVC\14.29.30133\INCLUDE\SAL.H
D:\VS\VC\TOOLS\MSVC\14.29.30133\INCLUDE\CONCURRENCYSAL.H
D:\VS\VC\TOOLS\MSVC\14.29.30133\INCLUDE\VADEFS.H
D:\WINDOWS KITS\10\INCLUDE\10.0.19041.0\UCRT\CORECRT_WSTDIO.H
D:\WINDOWS KITS\10\INCLUDE\10.0.19041.0\UCRT\CORECRT_STDIO_CONFIG.H
