^C:\USERS\ACER\SOURCE\REPOS\LAB 8-9\TASK 4.1\DEBUG\TASK 4.1.OBJ
C:\USERS\ACER\SOURCE\REPOS\LAB 8-9\DEBUG\TASK 4.1.EXE
C:\USERS\ACER\SOURCE\REPOS\LAB 8-9\TASK 4.1\DEBUG\TASK 4.1.ILK
C:\USERS\ACER\SOURCE\REPOS\LAB 8-9\DEBUG\TASK 4.1.PDB
